<?xml version="1.0" encoding="UTF-8"?>
<testng-results skipped="0" failed="0" ignored="0" total="2" passed="2">
  <reporter-output>
    <line>
      <![CDATA[<div style="display:block;margin-left:10px;"><div  class="teststeppass"><span class="teststeppass-label">T </span>Given User Launches an Application on desired device</div><div  class="teststeppass"><span class="teststeppass-label">T </span>Then I login with 'test@test.com' and 'test'</div><div style="display:block;margin-left:10px;"><div  class="info"><span class="info-label">I </span>This device may not be iPad Device thats why 'Return' button doesn't appeared</div></div><div  class="teststeppass"><span class="teststeppass-label">T </span>And Verify User Logged in on Home Page</div><div style="display:block;margin-left:10px;"><div  class="info"><span class="info-label">I </span>The Current Title is Jobs</div><div  class="pass"><span class="pass-label">P </span>
Expected: a string containing "Jobs"
     Actual: was "Jobs" <a href="../img/SampleTest_1ekzriqnq9aqo34150.png" target="_blank">[View Screenshot]</a> </div><div  class="pass"><span class="pass-label">P </span>Expected Sign Out Link present : Actual Sign Out Link present <a href="../img/SampleTest_16o1vh1xxjq7x34151.png" target="_blank">[View Screenshot]</a> </div></div><div  class="teststeppass"><span class="teststeppass-label">T </span>And User Selects second option from the available list</div><div style="display:block;margin-left:10px;"><div  class="info"><span class="info-label">I </span>List Details: </div><div  class="info"><span class="info-label">I </span>Total Number of item in the list: 5</div><div  class="info"><span class="info-label">I </span>Main Route Name: Laptop RAM Upgrade</div><div  class="info"><span class="info-label">I </span>Sub Route Name: Electrical Problem</div><div  class="info"><span class="info-label">I </span>Distance in Miles: 7359.56 miles</div><div  class="info"><span class="info-label">I </span>Main Route Name: Router Replacement</div><div  class="info"><span class="info-label">I </span>Sub Route Name: Electrical Problem</div><div  class="info"><span class="info-label">I </span>Distance in Miles: 7359.76 miles</div><div  class="info"><span class="info-label">I </span>Main Route Name: Laptop Motherboard Replacement</div><div  class="info"><span class="info-label">I </span>Sub Route Name: Electrical Problem</div><div  class="info"><span class="info-label">I </span>Distance in Miles: 7359.79 miles</div><div  class="info"><span class="info-label">I </span>Main Route Name: Microwave Repairing</div><div  class="info"><span class="info-label">I </span>Sub Route Name: Electrical Problem</div><div  class="info"><span class="info-label">I </span>Distance in Miles: 7360.2 miles</div><div  class="info"><span class="info-label">I </span>Main Route Name: Laptop Screen Replacement</div><div  class="info"><span class="info-label">I </span>Sub Route Name: Electrical Problem</div><div  class="info"><span class="info-label">I </span>Distance in Miles: 7360.42 miles</div><div  class="info"><span class="info-label">I </span>Clicking on second element</div></div><div  class="teststeppass"><span class="teststeppass-label">T </span>When User moves to detail page verify item info against list page</div><div style="display:block;margin-left:10px;"><div  class="info"><span class="info-label">I </span>From List Page Router Replacement</div><div  class="info"><span class="info-label">I </span>From Detail page: Router Replacement</div><div  class="pass"><span class="pass-label">P </span>
Expected: a string containing "Router Replacement"
     Actual: was "Router Replacement" <a href="../img/SampleTest_15eix5pz8hu9y34152.png" target="_blank">[View Screenshot]</a> </div></div><div  class="teststeppass"><span class="teststeppass-label">T </span>Then User come back to home page</div><div  class="teststeppass"><span class="teststeppass-label">T </span>And Click on Sign Out Button</div><div style="display:block;margin-left:10px;"><div  class="info"><span class="info-label">I </span>Clicking on Log Out link</div></div></div>]]>
    </line>
    <line>
      <![CDATA[<div style="display:block;margin-left:10px;"><div  class="teststeppass"><span class="teststeppass-label">T </span>Given User Launches an Application on desired device</div><div style="display:block;margin-left:10px;"><div  class="info"><span class="info-label">I </span>As this is iOS device we can't install app through script,so autolauch property is set to true</div></div><div  class="teststeppass"><span class="teststeppass-label">T </span>Then I login with 'test@test.com' and 'test'</div><div  class="teststeppass"><span class="teststeppass-label">T </span>And Verify User Logged in on Home Page</div><div style="display:block;margin-left:10px;"><div  class="info"><span class="info-label">I </span>Allow Link wasn't appeared this time</div><div  class="info"><span class="info-label">I </span>The Current Title is Jobs</div><div  class="pass"><span class="pass-label">P </span>
Expected: a string containing "Jobs"
     Actual: was "Jobs" <a href="../img/SampleTest_lzgh2uqnlo2i34148.png" target="_blank">[View Screenshot]</a> </div><div  class="pass"><span class="pass-label">P </span>Expected Sign Out Link present : Actual Sign Out Link present <a href="../img/SampleTest_1a9jww7u49diu34149.png" target="_blank">[View Screenshot]</a> </div></div><div  class="teststeppass"><span class="teststeppass-label">T </span>And User Selects second option from the available list</div><div style="display:block;margin-left:10px;"><div  class="info"><span class="info-label">I </span>List Details: </div><div  class="info"><span class="info-label">I </span>Total Number of item in the list: 5</div><div  class="info"><span class="info-label">I </span>Main Route Name: Laptop RAM Upgrade</div><div  class="info"><span class="info-label">I </span>Sub Route Name: Laptop RAM Upgrade</div><div  class="info"><span class="info-label">I </span>Distance in Miles: 7343.32 miles</div><div  class="info"><span class="info-label">I </span>Main Route Name: Router Replacement</div><div  class="info"><span class="info-label">I </span>Sub Route Name: Router Replacement</div><div  class="info"><span class="info-label">I </span>Distance in Miles: 7343.53 miles</div><div  class="info"><span class="info-label">I </span>Main Route Name: Laptop Motherboard Replacement</div><div  class="info"><span class="info-label">I </span>Sub Route Name: Laptop Motherboard Replacement</div><div  class="info"><span class="info-label">I </span>Distance in Miles: 7343.55 miles</div><div  class="info"><span class="info-label">I </span>Main Route Name: Microwave Repairing</div><div  class="info"><span class="info-label">I </span>Sub Route Name: Microwave Repairing</div><div  class="info"><span class="info-label">I </span>Distance in Miles: 7343.96 miles</div><div  class="info"><span class="info-label">I </span>Main Route Name: Laptop Screen Replacement</div><div  class="info"><span class="info-label">I </span>Sub Route Name: Infostretch Corporation</div><div  class="info"><span class="info-label">I </span>Distance in Miles: 7344.19 miles</div><div  class="info"><span class="info-label">I </span>Clicking on second element</div></div><div  class="teststeppass"><span class="teststeppass-label">T </span>When User moves to detail page verify item info against list page</div><div style="display:block;margin-left:10px;"><div  class="info"><span class="info-label">I </span>From List Page Router Replacement</div><div  class="info"><span class="info-label">I </span>From Detail page: Router Replacement</div><div  class="pass"><span class="pass-label">P </span>
Expected: a string containing "Router Replacement"
     Actual: was "Router Replacement" <a href="../img/SampleTest_1e28tu0d4mz7s34153.png" target="_blank">[View Screenshot]</a> </div></div><div  class="teststeppass"><span class="teststeppass-label">T </span>Then User come back to home page</div><div  class="teststeppass"><span class="teststeppass-label">T </span>And Click on Sign Out Button</div><div style="display:block;margin-left:10px;"><div  class="info"><span class="info-label">I </span>Clicking on Log Out link</div></div></div>]]>
    </line>
  </reporter-output>
  <suite name="Suite" duration-ms="278448" started-at="2018-03-23T08:59:39Z" finished-at="2018-03-23T09:04:17Z">
    <groups>
      <group name="SMOKE">
        <method signature="scenarios.ValidateHomePage.bdd.SampleTest()[pri:1000, instance:com.qmetry.qaf.automation.step.client.Scenario@3e8]" name="SampleTest" class="com.qmetry.qaf.automation.step.client.Scenario"/>
        <method signature="scenarios.ValidateHomePage.bdd.SampleTest()[pri:1001, instance:com.qmetry.qaf.automation.step.client.Scenario@3e9]" name="SampleTest" class="com.qmetry.qaf.automation.step.client.Scenario"/>
      </group> <!-- SMOKE -->
    </groups>
    <test name="AndriodTest" duration-ms="188014" started-at="2018-03-23T08:59:39Z" finished-at="2018-03-23T09:02:47Z">
      <class name="com.qmetry.qaf.automation.step.client.Scenario">
        <test-method status="PASS" signature="setupTest(org.testng.ITestContext)[pri:0, instance:com.qmetry.qaf.automation.step.client.Scenario@3e8]" test-instance-name="SampleTest" name="setupTest" is-config="true" duration-ms="110" started-at="2018-03-23T14:29:39Z" finished-at="2018-03-23T14:29:39Z">
          <params>
            <param index="0">
              <value>
                <![CDATA[org.testng.TestRunner@16371bef]]>
              </value>
            </param>
          </params>
          <reporter-output>
          </reporter-output>
        </test-method> <!-- setupTest -->
        <test-method status="PASS" signature="SampleTest()[pri:1000, instance:com.qmetry.qaf.automation.step.client.Scenario@3e8]" test-instance-name="SampleTest" name="SampleTest" duration-ms="167137" started-at="2018-03-23T14:29:39Z" description="Sample Test Scenario" finished-at="2018-03-23T14:32:26Z">
          <reporter-output>
            <line>
              <![CDATA[<div style="display:block;margin-left:10px;"><div  class="teststeppass"><span class="teststeppass-label">T </span>Given User Launches an Application on desired device</div><div  class="teststeppass"><span class="teststeppass-label">T </span>Then I login with 'test@test.com' and 'test'</div><div style="display:block;margin-left:10px;"><div  class="info"><span class="info-label">I </span>This device may not be iPad Device thats why 'Return' button doesn't appeared</div></div><div  class="teststeppass"><span class="teststeppass-label">T </span>And Verify User Logged in on Home Page</div><div style="display:block;margin-left:10px;"><div  class="info"><span class="info-label">I </span>The Current Title is Jobs</div><div  class="pass"><span class="pass-label">P </span>
Expected: a string containing "Jobs"
     Actual: was "Jobs" <a href="../img/SampleTest_1ekzriqnq9aqo34150.png" target="_blank">[View Screenshot]</a> </div><div  class="pass"><span class="pass-label">P </span>Expected Sign Out Link present : Actual Sign Out Link present <a href="../img/SampleTest_16o1vh1xxjq7x34151.png" target="_blank">[View Screenshot]</a> </div></div><div  class="teststeppass"><span class="teststeppass-label">T </span>And User Selects second option from the available list</div><div style="display:block;margin-left:10px;"><div  class="info"><span class="info-label">I </span>List Details: </div><div  class="info"><span class="info-label">I </span>Total Number of item in the list: 5</div><div  class="info"><span class="info-label">I </span>Main Route Name: Laptop RAM Upgrade</div><div  class="info"><span class="info-label">I </span>Sub Route Name: Electrical Problem</div><div  class="info"><span class="info-label">I </span>Distance in Miles: 7359.56 miles</div><div  class="info"><span class="info-label">I </span>Main Route Name: Router Replacement</div><div  class="info"><span class="info-label">I </span>Sub Route Name: Electrical Problem</div><div  class="info"><span class="info-label">I </span>Distance in Miles: 7359.76 miles</div><div  class="info"><span class="info-label">I </span>Main Route Name: Laptop Motherboard Replacement</div><div  class="info"><span class="info-label">I </span>Sub Route Name: Electrical Problem</div><div  class="info"><span class="info-label">I </span>Distance in Miles: 7359.79 miles</div><div  class="info"><span class="info-label">I </span>Main Route Name: Microwave Repairing</div><div  class="info"><span class="info-label">I </span>Sub Route Name: Electrical Problem</div><div  class="info"><span class="info-label">I </span>Distance in Miles: 7360.2 miles</div><div  class="info"><span class="info-label">I </span>Main Route Name: Laptop Screen Replacement</div><div  class="info"><span class="info-label">I </span>Sub Route Name: Electrical Problem</div><div  class="info"><span class="info-label">I </span>Distance in Miles: 7360.42 miles</div><div  class="info"><span class="info-label">I </span>Clicking on second element</div></div><div  class="teststeppass"><span class="teststeppass-label">T </span>When User moves to detail page verify item info against list page</div><div style="display:block;margin-left:10px;"><div  class="info"><span class="info-label">I </span>From List Page Router Replacement</div><div  class="info"><span class="info-label">I </span>From Detail page: Router Replacement</div><div  class="pass"><span class="pass-label">P </span>
Expected: a string containing "Router Replacement"
     Actual: was "Router Replacement" <a href="../img/SampleTest_15eix5pz8hu9y34152.png" target="_blank">[View Screenshot]</a> </div></div><div  class="teststeppass"><span class="teststeppass-label">T </span>Then User come back to home page</div><div  class="teststeppass"><span class="teststeppass-label">T </span>And Click on Sign Out Button</div><div style="display:block;margin-left:10px;"><div  class="info"><span class="info-label">I </span>Clicking on Log Out link</div></div></div>]]>
            </line>
          </reporter-output>
        </test-method> <!-- SampleTest -->
        <test-method status="PASS" signature="setupMethod(java.lang.reflect.Method, org.testng.ITestContext)[pri:0, instance:com.qmetry.qaf.automation.step.client.Scenario@3e8]" test-instance-name="SampleTest" name="setupMethod" is-config="true" duration-ms="0" started-at="2018-03-23T14:29:39Z" finished-at="2018-03-23T14:29:39Z">
          <params>
            <param index="0">
              <value>
                <![CDATA[public void com.qmetry.qaf.automation.step.client.Scenario.scenario()]]>
              </value>
            </param>
            <param index="1">
              <value>
                <![CDATA[org.testng.TestRunner@16371bef]]>
              </value>
            </param>
          </params>
          <reporter-output>
          </reporter-output>
        </test-method> <!-- setupMethod -->
        <test-method status="PASS" signature="setup(org.testng.ITestContext)[pri:0, instance:com.qmetry.qaf.automation.step.client.Scenario@3e8]" test-instance-name="SampleTest" name="setup" is-config="true" duration-ms="0" started-at="2018-03-23T14:29:39Z" finished-at="2018-03-23T14:29:39Z">
          <params>
            <param index="0">
              <value>
                <![CDATA[org.testng.TestRunner@16371bef]]>
              </value>
            </param>
          </params>
          <reporter-output>
          </reporter-output>
        </test-method> <!-- setup -->
        <test-method status="PASS" signature="afterMethod(org.testng.ITestContext, org.testng.ITestResult)[pri:0, instance:com.qmetry.qaf.automation.step.client.Scenario@3e8]" test-instance-name="SampleTest" name="afterMethod" is-config="true" duration-ms="10" started-at="2018-03-23T14:32:26Z" finished-at="2018-03-23T14:32:26Z">
          <params>
            <param index="0">
              <value>
                <![CDATA[org.testng.TestRunner@16371bef]]>
              </value>
            </param>
            <param index="1">
              <value>
                <![CDATA[[TestResult name=SampleTest status=SUCCESS method=scenarios.ValidateHomePage.bdd.SampleTest()[pri:1000, instance:com.qmetry.qaf.automation.step.client.Scenario@3e8] output=<div style="display:block;margin-left:10px;"><div  class="teststeppass"><span class="teststeppass-label">T </span>Given User Launches an Application on desired device</div><div  class="teststeppass"><span class="teststeppass-label">T </span>Then I login with 'test@test.com' and 'test'</div><div style="display:block;margin-left:10px;"><div  class="info"><span class="info-label">I </span>This device may not be iPad Device thats why 'Return' button doesn't appeared</div></div><div  class="teststeppass"><span class="teststeppass-label">T </span>And Verify User Logged in on Home Page</div><div style="display:block;margin-left:10px;"><div  class="info"><span class="info-label">I </span>The Current Title is Jobs</div><div  class="pass"><span class="pass-label">P </span>
Expected: a string containing "Jobs"
     Actual: was "Jobs" <a href="../img/SampleTest_1ekzriqnq9aqo34150.png" target="_blank">[View Screenshot]</a> </div><div  class="pass"><span class="pass-label">P </span>Expected Sign Out Link present : Actual Sign Out Link present <a href="../img/SampleTest_16o1vh1xxjq7x34151.png" target="_blank">[View Screenshot]</a> </div></div><div  class="teststeppass"><span class="teststeppass-label">T </span>And User Selects second option from the available list</div><div style="display:block;margin-left:10px;"><div  class="info"><span class="info-label">I </span>List Details: </div><div  class="info"><span class="info-label">I </span>Total Number of item in the list: 5</div><div  class="info"><span class="info-label">I </span>Main Route Name: Laptop RAM Upgrade</div><div  class="info"><span class="info-label">I </span>Sub Route Name: Electrical Problem</div><div  class="info"><span class="info-label">I </span>Distance in Miles: 7359.56 miles</div><div  class="info"><span class="info-label">I </span>Main Route Name: Router Replacement</div><div  class="info"><span class="info-label">I </span>Sub Route Name: Electrical Problem</div><div  class="info"><span class="info-label">I </span>Distance in Miles: 7359.76 miles</div><div  class="info"><span class="info-label">I </span>Main Route Name: Laptop Motherboard Replacement</div><div  class="info"><span class="info-label">I </span>Sub Route Name: Electrical Problem</div><div  class="info"><span class="info-label">I </span>Distance in Miles: 7359.79 miles</div><div  class="info"><span class="info-label">I </span>Main Route Name: Microwave Repairing</div><div  class="info"><span class="info-label">I </span>Sub Route Name: Electrical Problem</div><div  class="info"><span class="info-label">I </span>Distance in Miles: 7360.2 miles</div><div  class="info"><span class="info-label">I </span>Main Route Name: Laptop Screen Replacement</div><div  class="info"><span class="info-label">I </span>Sub Route Name: Electrical Problem</div><div  class="info"><span class="info-label">I </span>Distance in Miles: 7360.42 miles</div><div  class="info"><span class="info-label">I </span>Clicking on second element</div></div><div  class="teststeppass"><span class="teststeppass-label">T </span>When User moves to detail page verify item info against list page</div><div style="display:block;margin-left:10px;"><div  class="info"><span class="info-label">I </span>From List Page Router Replacement</div><div  class="info"><span class="info-label">I </span>From Detail page: Router Replacement</div><div  class="pass"><span class="pass-label">P </span>
Expected: a string containing "Router Replacement"
     Actual: was "Router Replacement" <a href="../img/SampleTest_15eix5pz8hu9y34152.png" target="_blank">[View Screenshot]</a> </div></div><div  class="teststeppass"><span class="teststeppass-label">T </span>Then User come back to home page</div><div  class="teststeppass"><span class="teststeppass-label">T </span>And Click on Sign Out Button</div><div style="display:block;margin-left:10px;"><div  class="info"><span class="info-label">I </span>Clicking on Log Out link</div></div></div>]]]>
              </value>
            </param>
          </params>
          <reporter-output>
          </reporter-output>
        </test-method> <!-- afterMethod -->
        <test-method status="PASS" signature="afterClass(org.testng.ITestContext)[pri:0, instance:com.qmetry.qaf.automation.step.client.Scenario@3e8]" test-instance-name="SampleTest" name="afterClass" is-config="true" duration-ms="1" started-at="2018-03-23T14:32:26Z" finished-at="2018-03-23T14:32:26Z">
          <params>
            <param index="0">
              <value>
                <![CDATA[org.testng.TestRunner@16371bef]]>
              </value>
            </param>
          </params>
          <reporter-output>
          </reporter-output>
        </test-method> <!-- afterClass -->
        <test-method status="PASS" signature="afterTest(org.testng.ITestContext)[pri:0, instance:com.qmetry.qaf.automation.step.client.Scenario@3e8]" test-instance-name="SampleTest" name="afterTest" is-config="true" duration-ms="20707" started-at="2018-03-23T14:32:26Z" finished-at="2018-03-23T14:32:47Z">
          <params>
            <param index="0">
              <value>
                <![CDATA[org.testng.TestRunner@16371bef]]>
              </value>
            </param>
          </params>
          <reporter-output>
          </reporter-output>
        </test-method> <!-- afterTest -->
      </class> <!-- com.qmetry.qaf.automation.step.client.Scenario -->
    </test> <!-- AndriodTest -->
    <test name="iOSTest" duration-ms="278385" started-at="2018-03-23T08:59:39Z" finished-at="2018-03-23T09:04:17Z">
      <class name="com.qmetry.qaf.automation.step.client.Scenario">
        <test-method status="PASS" signature="setupSuit(org.testng.ITestContext)[pri:0, instance:com.qmetry.qaf.automation.step.client.Scenario@3e9]" test-instance-name="SampleTest" name="setupSuit" is-config="true" duration-ms="78" started-at="2018-03-23T14:29:39Z" finished-at="2018-03-23T14:29:39Z">
          <params>
            <param index="0">
              <value>
                <![CDATA[org.testng.TestRunner@7c417213]]>
              </value>
            </param>
          </params>
          <reporter-output>
          </reporter-output>
        </test-method> <!-- setupSuit -->
        <test-method status="PASS" signature="setupTest(org.testng.ITestContext)[pri:0, instance:com.qmetry.qaf.automation.step.client.Scenario@3e9]" test-instance-name="SampleTest" name="setupTest" is-config="true" duration-ms="0" started-at="2018-03-23T14:29:39Z" finished-at="2018-03-23T14:29:39Z">
          <params>
            <param index="0">
              <value>
                <![CDATA[org.testng.TestRunner@7c417213]]>
              </value>
            </param>
          </params>
          <reporter-output>
          </reporter-output>
        </test-method> <!-- setupTest -->
        <test-method status="PASS" signature="setup(org.testng.ITestContext)[pri:0, instance:com.qmetry.qaf.automation.step.client.Scenario@3e9]" test-instance-name="SampleTest" name="setup" is-config="true" duration-ms="0" started-at="2018-03-23T14:29:39Z" finished-at="2018-03-23T14:29:39Z">
          <params>
            <param index="0">
              <value>
                <![CDATA[org.testng.TestRunner@7c417213]]>
              </value>
            </param>
          </params>
          <reporter-output>
          </reporter-output>
        </test-method> <!-- setup -->
        <test-method status="PASS" signature="setupMethod(java.lang.reflect.Method, org.testng.ITestContext)[pri:0, instance:com.qmetry.qaf.automation.step.client.Scenario@3e9]" test-instance-name="SampleTest" name="setupMethod" is-config="true" duration-ms="0" started-at="2018-03-23T14:29:39Z" finished-at="2018-03-23T14:29:39Z">
          <params>
            <param index="0">
              <value>
                <![CDATA[public void com.qmetry.qaf.automation.step.client.Scenario.scenario()]]>
              </value>
            </param>
            <param index="1">
              <value>
                <![CDATA[org.testng.TestRunner@7c417213]]>
              </value>
            </param>
          </params>
          <reporter-output>
          </reporter-output>
        </test-method> <!-- setupMethod -->
        <test-method status="PASS" signature="SampleTest()[pri:1001, instance:com.qmetry.qaf.automation.step.client.Scenario@3e9]" test-instance-name="SampleTest" name="SampleTest" duration-ms="241229" started-at="2018-03-23T14:29:39Z" description="Sample Test Scenario" finished-at="2018-03-23T14:33:40Z">
          <reporter-output>
            <line>
              <![CDATA[<div style="display:block;margin-left:10px;"><div  class="teststeppass"><span class="teststeppass-label">T </span>Given User Launches an Application on desired device</div><div style="display:block;margin-left:10px;"><div  class="info"><span class="info-label">I </span>As this is iOS device we can't install app through script,so autolauch property is set to true</div></div><div  class="teststeppass"><span class="teststeppass-label">T </span>Then I login with 'test@test.com' and 'test'</div><div  class="teststeppass"><span class="teststeppass-label">T </span>And Verify User Logged in on Home Page</div><div style="display:block;margin-left:10px;"><div  class="info"><span class="info-label">I </span>Allow Link wasn't appeared this time</div><div  class="info"><span class="info-label">I </span>The Current Title is Jobs</div><div  class="pass"><span class="pass-label">P </span>
Expected: a string containing "Jobs"
     Actual: was "Jobs" <a href="../img/SampleTest_lzgh2uqnlo2i34148.png" target="_blank">[View Screenshot]</a> </div><div  class="pass"><span class="pass-label">P </span>Expected Sign Out Link present : Actual Sign Out Link present <a href="../img/SampleTest_1a9jww7u49diu34149.png" target="_blank">[View Screenshot]</a> </div></div><div  class="teststeppass"><span class="teststeppass-label">T </span>And User Selects second option from the available list</div><div style="display:block;margin-left:10px;"><div  class="info"><span class="info-label">I </span>List Details: </div><div  class="info"><span class="info-label">I </span>Total Number of item in the list: 5</div><div  class="info"><span class="info-label">I </span>Main Route Name: Laptop RAM Upgrade</div><div  class="info"><span class="info-label">I </span>Sub Route Name: Laptop RAM Upgrade</div><div  class="info"><span class="info-label">I </span>Distance in Miles: 7343.32 miles</div><div  class="info"><span class="info-label">I </span>Main Route Name: Router Replacement</div><div  class="info"><span class="info-label">I </span>Sub Route Name: Router Replacement</div><div  class="info"><span class="info-label">I </span>Distance in Miles: 7343.53 miles</div><div  class="info"><span class="info-label">I </span>Main Route Name: Laptop Motherboard Replacement</div><div  class="info"><span class="info-label">I </span>Sub Route Name: Laptop Motherboard Replacement</div><div  class="info"><span class="info-label">I </span>Distance in Miles: 7343.55 miles</div><div  class="info"><span class="info-label">I </span>Main Route Name: Microwave Repairing</div><div  class="info"><span class="info-label">I </span>Sub Route Name: Microwave Repairing</div><div  class="info"><span class="info-label">I </span>Distance in Miles: 7343.96 miles</div><div  class="info"><span class="info-label">I </span>Main Route Name: Laptop Screen Replacement</div><div  class="info"><span class="info-label">I </span>Sub Route Name: Infostretch Corporation</div><div  class="info"><span class="info-label">I </span>Distance in Miles: 7344.19 miles</div><div  class="info"><span class="info-label">I </span>Clicking on second element</div></div><div  class="teststeppass"><span class="teststeppass-label">T </span>When User moves to detail page verify item info against list page</div><div style="display:block;margin-left:10px;"><div  class="info"><span class="info-label">I </span>From List Page Router Replacement</div><div  class="info"><span class="info-label">I </span>From Detail page: Router Replacement</div><div  class="pass"><span class="pass-label">P </span>
Expected: a string containing "Router Replacement"
     Actual: was "Router Replacement" <a href="../img/SampleTest_1e28tu0d4mz7s34153.png" target="_blank">[View Screenshot]</a> </div></div><div  class="teststeppass"><span class="teststeppass-label">T </span>Then User come back to home page</div><div  class="teststeppass"><span class="teststeppass-label">T </span>And Click on Sign Out Button</div><div style="display:block;margin-left:10px;"><div  class="info"><span class="info-label">I </span>Clicking on Log Out link</div></div></div>]]>
            </line>
          </reporter-output>
        </test-method> <!-- SampleTest -->
        <test-method status="PASS" signature="afterMethod(org.testng.ITestContext, org.testng.ITestResult)[pri:0, instance:com.qmetry.qaf.automation.step.client.Scenario@3e9]" test-instance-name="SampleTest" name="afterMethod" is-config="true" duration-ms="0" started-at="2018-03-23T14:33:40Z" finished-at="2018-03-23T14:33:40Z">
          <params>
            <param index="0">
              <value>
                <![CDATA[org.testng.TestRunner@7c417213]]>
              </value>
            </param>
            <param index="1">
              <value>
                <![CDATA[[TestResult name=SampleTest status=SUCCESS method=scenarios.ValidateHomePage.bdd.SampleTest()[pri:1001, instance:com.qmetry.qaf.automation.step.client.Scenario@3e9] output=<div style="display:block;margin-left:10px;"><div  class="teststeppass"><span class="teststeppass-label">T </span>Given User Launches an Application on desired device</div><div style="display:block;margin-left:10px;"><div  class="info"><span class="info-label">I </span>As this is iOS device we can't install app through script,so autolauch property is set to true</div></div><div  class="teststeppass"><span class="teststeppass-label">T </span>Then I login with 'test@test.com' and 'test'</div><div  class="teststeppass"><span class="teststeppass-label">T </span>And Verify User Logged in on Home Page</div><div style="display:block;margin-left:10px;"><div  class="info"><span class="info-label">I </span>Allow Link wasn't appeared this time</div><div  class="info"><span class="info-label">I </span>The Current Title is Jobs</div><div  class="pass"><span class="pass-label">P </span>
Expected: a string containing "Jobs"
     Actual: was "Jobs" <a href="../img/SampleTest_lzgh2uqnlo2i34148.png" target="_blank">[View Screenshot]</a> </div><div  class="pass"><span class="pass-label">P </span>Expected Sign Out Link present : Actual Sign Out Link present <a href="../img/SampleTest_1a9jww7u49diu34149.png" target="_blank">[View Screenshot]</a> </div></div><div  class="teststeppass"><span class="teststeppass-label">T </span>And User Selects second option from the available list</div><div style="display:block;margin-left:10px;"><div  class="info"><span class="info-label">I </span>List Details: </div><div  class="info"><span class="info-label">I </span>Total Number of item in the list: 5</div><div  class="info"><span class="info-label">I </span>Main Route Name: Laptop RAM Upgrade</div><div  class="info"><span class="info-label">I </span>Sub Route Name: Laptop RAM Upgrade</div><div  class="info"><span class="info-label">I </span>Distance in Miles: 7343.32 miles</div><div  class="info"><span class="info-label">I </span>Main Route Name: Router Replacement</div><div  class="info"><span class="info-label">I </span>Sub Route Name: Router Replacement</div><div  class="info"><span class="info-label">I </span>Distance in Miles: 7343.53 miles</div><div  class="info"><span class="info-label">I </span>Main Route Name: Laptop Motherboard Replacement</div><div  class="info"><span class="info-label">I </span>Sub Route Name: Laptop Motherboard Replacement</div><div  class="info"><span class="info-label">I </span>Distance in Miles: 7343.55 miles</div><div  class="info"><span class="info-label">I </span>Main Route Name: Microwave Repairing</div><div  class="info"><span class="info-label">I </span>Sub Route Name: Microwave Repairing</div><div  class="info"><span class="info-label">I </span>Distance in Miles: 7343.96 miles</div><div  class="info"><span class="info-label">I </span>Main Route Name: Laptop Screen Replacement</div><div  class="info"><span class="info-label">I </span>Sub Route Name: Infostretch Corporation</div><div  class="info"><span class="info-label">I </span>Distance in Miles: 7344.19 miles</div><div  class="info"><span class="info-label">I </span>Clicking on second element</div></div><div  class="teststeppass"><span class="teststeppass-label">T </span>When User moves to detail page verify item info against list page</div><div style="display:block;margin-left:10px;"><div  class="info"><span class="info-label">I </span>From List Page Router Replacement</div><div  class="info"><span class="info-label">I </span>From Detail page: Router Replacement</div><div  class="pass"><span class="pass-label">P </span>
Expected: a string containing "Router Replacement"
     Actual: was "Router Replacement" <a href="../img/SampleTest_1e28tu0d4mz7s34153.png" target="_blank">[View Screenshot]</a> </div></div><div  class="teststeppass"><span class="teststeppass-label">T </span>Then User come back to home page</div><div  class="teststeppass"><span class="teststeppass-label">T </span>And Click on Sign Out Button</div><div style="display:block;margin-left:10px;"><div  class="info"><span class="info-label">I </span>Clicking on Log Out link</div></div></div>]]]>
              </value>
            </param>
          </params>
          <reporter-output>
          </reporter-output>
        </test-method> <!-- afterMethod -->
        <test-method status="PASS" signature="afterClass(org.testng.ITestContext)[pri:0, instance:com.qmetry.qaf.automation.step.client.Scenario@3e9]" test-instance-name="SampleTest" name="afterClass" is-config="true" duration-ms="0" started-at="2018-03-23T14:33:40Z" finished-at="2018-03-23T14:33:40Z">
          <params>
            <param index="0">
              <value>
                <![CDATA[org.testng.TestRunner@7c417213]]>
              </value>
            </param>
          </params>
          <reporter-output>
          </reporter-output>
        </test-method> <!-- afterClass -->
        <test-method status="PASS" signature="afterTest(org.testng.ITestContext)[pri:0, instance:com.qmetry.qaf.automation.step.client.Scenario@3e9]" test-instance-name="SampleTest" name="afterTest" is-config="true" duration-ms="37094" started-at="2018-03-23T14:33:40Z" finished-at="2018-03-23T14:34:17Z">
          <params>
            <param index="0">
              <value>
                <![CDATA[org.testng.TestRunner@7c417213]]>
              </value>
            </param>
          </params>
          <reporter-output>
          </reporter-output>
        </test-method> <!-- afterTest -->
        <test-method status="PASS" signature="afterSuit(org.testng.ITestContext)[pri:0, instance:com.qmetry.qaf.automation.step.client.Scenario@3e9]" test-instance-name="SampleTest" name="afterSuit" is-config="true" duration-ms="0" started-at="2018-03-23T14:34:17Z" finished-at="2018-03-23T14:34:17Z">
          <params>
            <param index="0">
              <value>
                <![CDATA[org.testng.TestRunner@7c417213]]>
              </value>
            </param>
          </params>
          <reporter-output>
          </reporter-output>
        </test-method> <!-- afterSuit -->
      </class> <!-- com.qmetry.qaf.automation.step.client.Scenario -->
    </test> <!-- iOSTest -->
  </suite> <!-- Suite -->
</testng-results>
